File: \AccessibleMarshal.dll
File: \application.ini
File: \breakpadinjector.dll
File: \crashreporter.exe
File: \crashreporter.ini
File: \D3DCompiler_43.dll
File: \d3dcompiler_47.dll
File: \dependentlibs.list
File: \firefox.exe
File: \freebl3.chk
File: \freebl3.dll
File: \icudt52.dll
File: \icuin52.dll
File: \icuuc52.dll
File: \libEGL.dll
File: \libGLESv2.dll
File: \maintenanceservice.exe
File: \maintenanceservice_installer.exe
File: \mozglue.dll
File: \msvcp120.dll
File: \msvcr120.dll
File: \nss3.dll
File: \nssckbi.dll
File: \nssdbm3.chk
File: \nssdbm3.dll
File: \omni.ja
File: \platform.ini
File: \plugin-container.exe
File: \plugin-hang-ui.exe
File: \precomplete
File: \removed-files
File: \sandboxbroker.dll
File: \softokn3.chk
File: \softokn3.dll
File: \update-settings.ini
File: \updater.exe
File: \updater.ini
File: \voucher.bin
File: \webapp-uninstaller.exe
File: \webapprt-stub.exe
File: \wow_helper.exe
File: \xul.dll
File: \webapprt\omni.ja
File: \webapprt\webapprt.ini
File: \uninstall\helper.exe
File: \gmp-clearkey\0.1\clearkey.dll
File: \gmp-clearkey\0.1\clearkey.info
File: \dictionaries\en-US.aff
File: \dictionaries\en-US.dic
File: \defaults\pref\channel-prefs.js
File: \browser\blocklist.xml
File: \browser\chrome.manifest
File: \browser\crashreporter-override.ini
File: \browser\omni.ja
File: \browser\extensions\{972ce4c6-7e08-4474-a285-3208198ce6fd}\chrome.manifest
File: \browser\extensions\{972ce4c6-7e08-4474-a285-3208198ce6fd}\icon.png
File: \browser\extensions\{972ce4c6-7e08-4474-a285-3208198ce6fd}\install.rdf
File: \browser\components\browsercomps.dll
File: \browser\components\components.manifest
